{
  "database": {
      "rules": {
        ".read": true,
        ".write": "auth != null"
      }
  },
  "hosting": {
    "public": "dist",
    "rewrites": [
      {
        "source": "**",
        "destination": "/index.html"
      }
    ]
  }
}
